Get started • r2dii
…
Use get_param() to create new functions to access configuration parameters. Here, for example, get_a_value() gets a_value from a_field:

get_a_value <- get_param("a_field")
get_a_value(file = config_file)
#> [1] "a_value"

Datasets

A family of functions allow you to read local datasets from your local 2dii Dropbox-folder, e.g.:

INDEX.REGIONS()
#> # A tibble: 327 x 3
#>    EquityMarket Country             CountryISO
#>    <chr>        <chr>               <chr>     
#>  1 Global       Afghanistan         AF        
#>  2 Global       Albania             AL        
#>  3 Global       Algeria             DZ        
#>  4 Global       American Samoa      AS        
#>  5 Global       Andorra             AD        
#>  6 Global       Angola              AO        
#>  7 Global       Anguilla            AI        
#>  8 Global       Antigua And Barbuda AG        
#>  9 Global       Argentina           AR        
#> 10 Global       Armenia             AM        
#> # ... with 317 more rows
…
